Import Input urls from csv files...  OK	Total time: 0.26 sec. 	Task time: 0.26 sec. 
Preparing csv file...  OK	Total time: 0.277 sec. 	Task time: 0.01700002 sec. 
Opening webpage:  OK	Total time: 10.428 sec. 	Task time: 10.151 sec. 
Logging... 	Total time: 22.823 sec. 	Task time: 12.3949995 sec. 
checking if app esists yet...  OK	Total time: 30.539 sec. 	Task time: 7.7159996 sec. 
finding images with relative url...  OK	Total time: 31.003 sec. 	Task time: 0.4640007 sec. 
Fetching description's product...  OK	Total time: 31.951 sec. 	Task time: 0.94799995 sec. 
Fetching versions's product... OK	Total time: 32.52 sec. 	Task time: 0.56900024 sec. 
Fetching versions's product... OK	Total time: 59.737 sec. 	Task time: 27.217 sec. 
Fetching versions's product... OK	Total time: 59.743 sec. 	Task time: 0.006000519 sec. 
Opening new tab browser to visit the next url...  OK	Total time: 66.551 sec. 	Task time: 6.8080025 sec. 
App time: 66.551 sec. 
Opening webpage:  OK	Total time: 77.602 sec. 	Task time: 11.050995 sec. 
checking if app esists yet...  OK	Total time: 87.939 sec. 	Task time: 10.337006 sec. 
finding images with relative url...  OK	Total time: 88.775 sec. 	Task time: 0.83599854 sec. 
Fetching description's product...  OK	Total time: 90.099 sec. 	Task time: 1.3239975 sec. 
Fetching versions's product... OK	Total time: 90.613 sec. 	Task time: 0.51399994 sec. 
Fetching versions's product... OK	Total time: 117.208 sec. 	Task time: 26.595001 sec. 
Fetching versions's product... OK	Total time: 117.213 sec. 	Task time: 0.0049972534 sec. 
Opening new tab browser to visit the next url...  OK	Total time: 123.791 sec. 	Task time: 6.578003 sec. 
App time: 57.239998 sec. 
Import Input urls from csv files...  OK	Total time: 124.039 sec. 	Task time: 124.039 sec. 
Opening webpage:  OK	Total time: 133.502 sec. 	Task time: 9.462997 sec. 
Logging... 	Total time: 147.396 sec. 	Task time: 13.893997 sec. 
checking if app esists yet...  OK	Total time: 155.103 sec. 	Task time: 7.7070007 sec. 
finding images with relative url...  OK	Total time: 160.845 sec. 	Task time: 5.7420044 sec. 
Fetching description's product...  OK	Total time: 162.07 sec. 	Task time: 1.2250061 sec. 
Fetching versions's product... OK	Total time: 162.732 sec. 	Task time: 0.6619873 sec. 
Fetching versions's product... OK	Total time: 189.593 sec. 	Task time: 26.861008 sec. 
Fetching versions's product... OK	Total time: 189.59799 sec. 	Task time: 0.004989624 sec. 
Opening new tab browser to visit the next url...  OK	Total time: 196.60901 sec. 	Task time: 7.011017 sec. 
App time: 196.60901 sec. 
Opening webpage:  OK	Total time: 205.866 sec. 	Task time: 9.256989 sec. 
checking if app esists yet...  OK	Total time: 216.215 sec. 	Task time: 10.348999 sec. 
finding images with relative url...  OK	Total time: 216.84 sec. 	Task time: 0.625 sec. 
Fetching description's product...  OK	Total time: 221.392 sec. 	Task time: 4.552002 sec. 
Fetching versions's product... OK	Total time: 225.586 sec. 	Task time: 4.1940002 sec. 
Fetching versions's product... OK	Total time: 226.861 sec. 	Task time: 1.2749939 sec. 
Fetching versions's product... OK	Total time: 226.864 sec. 	Task time: 0.0030059814 sec. 
Opening new tab browser to visit the next url...  OK	Total time: 233.662 sec. 	Task time: 6.798004 sec. 
App time: 37.052994 sec. 
Import Input urls from csv files...  OK	Total time: 234.043 sec. 	Task time: 234.043 sec. 
Opening webpage:  OK	Total time: 246.90201 sec. 	Task time: 12.859009 sec. 
Logging... 	Total time: 279.096 sec. 	Task time: 32.194 sec. 
checking if app esists yet...  OK	Total time: 326.77002 sec. 	Task time: 47.67401 sec. 
finding images with relative url...  OK	Total time: 341.42902 sec. 	Task time: 14.658997 sec. 
Fetching description's product...  OK	Total time: 346.202 sec. 	Task time: 4.7729797 sec. 
Fetching versions's product... OK	Total time: 350.436 sec. 	Task time: 4.234009 sec. 
Fetching versions's product... OK	Total time: 351.482 sec. 	Task time: 1.04599 sec. 
Fetching versions's product... OK	Total time: 351.485 sec. 	Task time: 0.0029907227 sec. 
Opening new tab browser to visit the next url...  OK	Total time: 358.288 sec. 	Task time: 6.803009 sec. 
App time: 358.288 sec. 
Opening webpage:  OK	Total time: 368.048 sec. 	Task time: 9.76001 sec. 
checking if app esists yet...  OK	Total time: 378.378 sec. 	Task time: 10.329987 sec. 
finding images with relative url...  OK	Total time: 378.845 sec. 	Task time: 0.4670105 sec. 
Fetching description's product...  OK	Total time: 379.914 sec. 	Task time: 1.0690002 sec. 
Fetching versions's product... OK	Total time: 380.522 sec. 	Task time: 0.6080017 sec. 
Fetching versions's product... OK	Total time: 403.08398 sec. 	Task time: 22.561981 sec. 
Fetching versions's product... OK	Total time: 403.088 sec. 	Task time: 0.0040283203 sec. 
Opening new tab browser to visit the next url...  OK	Total time: 409.672 sec. 	Task time: 6.5839844 sec. 
App time: 51.384003 sec. 
Opening webpage:  OK	Total time: 418.805 sec. 	Task time: 9.132996 sec. 
checking if app esists yet...  OK	Total time: 429.643 sec. 	Task time: 10.838013 sec. 
finding images with relative url...  OK	Total time: 430.28802 sec. 	Task time: 0.64501953 sec. 
Fetching description's product...  OK	Total time: 431.892 sec. 	Task time: 1.6039734 sec. 
Fetching versions's product... OK	Total time: 432.41998 sec. 	Task time: 0.5279846 sec. 
Fetching versions's product... OK	Total time: 458.383 sec. 	Task time: 25.963013 sec. 
Fetching versions's product... OK	Total time: 458.401 sec. 	Task time: 0.018005371 sec. 
Opening new tab browser to visit the next url...  OK	Total time: 465.083 sec. 	Task time: 6.682007 sec. 
App time: 55.41101 sec. 
Opening webpage:  OK	Total time: 474.372 sec. 	Task time: 9.289001 sec. 
checking if app esists yet...  OK	Total time: 485.24902 sec. 	Task time: 10.877014 sec. 
finding images with relative url...  OK	Total time: 485.8 sec. 	Task time: 0.55096436 sec. 
Fetching description's product...  OK	Total time: 486.68298 sec. 	Task time: 0.8829956 sec. 
Fetching versions's product... OK	Total time: 487.138 sec. 	Task time: 0.4550171 sec. 
Fetching versions's product... OK	Total time: 513.883 sec. 	Task time: 26.744995 sec. 
Fetching versions's product... OK	Total time: 513.89 sec. 	Task time: 0.007019043 sec. 
Opening new tab browser to visit the next url...  OK	Total time: 520.49603 sec. 	Task time: 6.606018 sec. 
App time: 55.413025 sec. 
Opening webpage:  OK	Total time: 529.97003 sec. 	Task time: 9.473999 sec. 
checking if app esists yet...  OK	Total time: 540.641 sec. 	Task time: 10.670959 sec. 
finding images with relative url...  OK	Total time: 541.429 sec. 	Task time: 0.7880249 sec. 
Fetching description's product...  OK	Total time: 545.91 sec. 	Task time: 4.480957 sec. 
Fetching versions's product... OK	Total time: 550.102 sec. 	Task time: 4.1920166 sec. 
Fetching versions's product... OK	Total time: 551.491 sec. 	Task time: 1.3890381 sec. 
Fetching versions's product... OK	Total time: 551.493 sec. 	Task time: 0.001953125 sec. 
Import Input urls from csv files...  OK	Total time: 551.714 sec. 	Task time: 551.714 sec. 
Opening webpage:  OK	Total time: 561.15796 sec. 	Task time: 9.44397 sec. 
Logging... 	Total time: 573.15295 sec. 	Task time: 11.994995 sec. 
checking if app esists yet...  OK	Total time: 581.17096 sec. 	Task time: 8.018005 sec. 
finding images with relative url...  OK	Total time: 581.922 sec. 	Task time: 0.7510376 sec. 
Fetching description's product...  OK	Total time: 586.944 sec. 	Task time: 5.0219727 sec. 
Fetching versions's product... OK	Total time: 591.17596 sec. 	Task time: 4.2319946 sec. 
Fetching versions's product... OK	Total time: 592.20197 sec. 	Task time: 1.026001 sec. 
Fetching versions's product... OK	Total time: 592.204 sec. 	Task time: 0.0020141602 sec. 
Opening new tab browser to visit the next url...  OK	Total time: 599.113 sec. 	Task time: 6.9089966 sec. 
App time: 599.113 sec. 
Opening webpage:  OK	Total time: 608.219 sec. 	Task time: 9.106018 sec. 
checking if app esists yet...  OK	Total time: 618.699 sec. 	Task time: 10.47998 sec. 
finding images with relative url...  OK	Total time: 620.058 sec. 	Task time: 1.3590088 sec. 
Fetching description's product...  OK	Total time: 621.39496 sec. 	Task time: 1.3369751 sec. 
Fetching versions's product... OK	Total time: 621.805 sec. 	Task time: 0.41003418 sec. 
Fetching versions's product... OK	Total time: 644.67896 sec. 	Task time: 22.873962 sec. 
Fetching versions's product... OK	Total time: 644.682 sec. 	Task time: 0.0030517578 sec. 
Opening new tab browser to visit the next url...  OK	Total time: 651.349 sec. 	Task time: 6.666992 sec. 
App time: 52.236023 sec. 
Opening webpage:  OK	Total time: 660.727 sec. 	Task time: 9.377991 sec. 
checking if app esists yet...  OK	Total time: 669.547 sec. 	Task time: 8.820007 sec. 
finding images with relative url...  OK	Total time: 670.13696 sec. 	Task time: 0.5899658 sec. 
Fetching description's product...  OK	Total time: 671.172 sec. 	Task time: 1.0350342 sec. 
Fetching versions's product... OK	Total time: 671.607 sec. 	Task time: 0.43499756 sec. 
Fetching versions's product... OK	Total time: 694.42 sec. 	Task time: 22.812988 sec. 
Fetching versions's product... OK	Total time: 694.43097 sec. 	Task time: 0.010986328 sec. 
Opening new tab browser to visit the next url...  OK	Total time: 701.02496 sec. 	Task time: 6.593994 sec. 
App time: 49.675964 sec. 
Opening webpage:  OK	Total time: 710.50397 sec. 	Task time: 9.479004 sec. 
checking if app esists yet...  OK	Total time: 719.161 sec. 	Task time: 8.657043 sec. 
finding images with relative url...  OK	Total time: 719.785 sec. 	Task time: 0.6239624 sec. 
Fetching description's product...  OK	Total time: 720.8 sec. 	Task time: 1.0150146 sec. 
Fetching versions's product... OK	Total time: 721.24896 sec. 	Task time: 0.4489746 sec. 
Fetching versions's product... OK	Total time: 745.115 sec. 	Task time: 23.866028 sec. 
Fetching versions's product... OK	Total time: 745.119 sec. 	Task time: 0.0040283203 sec. 
Opening new tab browser to visit the next url...  OK	Total time: 751.696 sec. 	Task time: 6.5769653 sec. 
App time: 50.67102 sec. 
Opening webpage:  OK	Total time: 760.89795 sec. 	Task time: 9.201965 sec. 
Import Input urls from csv files...  OK	Total time: 761.11096 sec. 	Task time: 761.11096 sec. 
Opening webpage:  OK	Total time: 771.37695 sec. 	Task time: 10.265991 sec. 
Logging... 	Total time: 783.49194 sec. 	Task time: 12.11499 sec. 
checking if app esists yet...  OK	Total time: 791.048 sec. 	Task time: 7.5560303 sec. 
finding images with relative url...  OK	Total time: 791.82697 sec. 	Task time: 0.7789917 sec. 
Fetching description's product...  OK	Total time: 793.10297 sec. 	Task time: 1.276001 sec. 
Fetching versions's product... OK	Total time: 793.57996 sec. 	Task time: 0.47698975 sec. 
Fetching versions's product... OK	Total time: 816.84296 sec. 	Task time: 23.263 sec. 
Fetching versions's product... OK	Total time: 816.8469 sec. 	Task time: 0.003967285 sec. 
Opening new tab browser to visit the next url...  OK	Total time: 823.694 sec. 	Task time: 6.847046 sec. 
App time: 823.694 sec. 
Opening webpage:  OK	Total time: 833.1409 sec. 	Task time: 9.44696 sec. 
checking if app esists yet...  OK	Total time: 844.25696 sec. 	Task time: 11.116028 sec. 
finding images with relative url...  OK	Total time: 845.324 sec. 	Task time: 1.0670166 sec. 
Fetching description's product...  OK	Total time: 849.95593 sec. 	Task time: 4.631958 sec. 
Fetching versions's product... OK	Total time: 854.3159 sec. 	Task time: 4.3599854 sec. 
Fetching versions's product... OK	Total time: 855.19196 sec. 	Task time: 0.8760376 sec. 
Fetching versions's product... OK	Total time: 855.19495 sec. 	Task time: 0.0029907227 sec. 
Opening new tab browser to visit the next url...  OK	Total time: 862.087 sec. 	Task time: 6.892029 sec. 
App time: 38.393005 sec. 
Opening webpage:  OK	Total time: 877.67395 sec. 	Task time: 15.586975 sec. 
checking if app esists yet...  OK	Total time: 888.22894 sec. 	Task time: 10.554993 sec. 
finding images with relative url...  OK	Total time: 889.43494 sec. 	Task time: 1.2059937 sec. 
Fetching description's product...  OK	Total time: 890.75195 sec. 	Task time: 1.3170166 sec. 
Fetching versions's product... OK	Total time: 891.449 sec. 	Task time: 0.6970215 sec. 
Fetching versions's product... OK	Total time: 931.33093 sec. 	Task time: 39.881958 sec. 
Fetching versions's product... OK	Total time: 931.34595 sec. 	Task time: 0.015014648 sec. 
Opening new tab browser to visit the next url...  OK	Total time: 938.1229 sec. 	Task time: 6.7769775 sec. 
App time: 76.03595 sec. 
Opening webpage:  OK	Total time: 948.00793 sec. 	Task time: 9.88501 sec. 
checking if app esists yet...  OK	Total time: 958.3909 sec. 	Task time: 10.382996 sec. 
finding images with relative url...  OK	Total time: 959.09894 sec. 	Task time: 0.7080078 sec. 
Fetching description's product...  OK	Total time: 963.85095 sec. 	Task time: 4.752014 sec. 
Fetching versions's product... OK	Total time: 964.41895 sec. 	Task time: 0.56799316 sec. 
Fetching versions's product... OK	Total time: 986.17395 sec. 	Task time: 21.755005 sec. 
Fetching versions's product... OK	Total time: 986.18097 sec. 	Task time: 0.007019043 sec. 
Opening new tab browser to visit the next url...  OK	Total time: 992.87695 sec. 	Task time: 6.695984 sec. 
App time: 54.75403 sec. 
Opening webpage:  OK	Total time: 1005.324 sec. 	Task time: 12.4470215 sec. 
checking if app esists yet...  OK	Total time: 1014.371 sec. 	Task time: 9.046997 sec. 
finding images with relative url...  OK	Total time: 1015.03796 sec. 	Task time: 0.6669922 sec. 
Fetching description's product...  OK	Total time: 1019.844 sec. 	Task time: 4.8060303 sec. 
Fetching versions's product... OK	Total time: 1024.1089 sec. 	Task time: 4.2648926 sec. 
Fetching versions's product... OK	Total time: 1025.481 sec. 	Task time: 1.3720703 sec. 
Fetching versions's product... OK	Total time: 1025.4829 sec. 	Task time: 0.001953125 sec. 
Opening new tab browser to visit the next url...  OK	Total time: 1032.4729 sec. 	Task time: 6.98999 sec. 
App time: 39.595947 sec. 
Opening webpage:  OK	Total time: 1042.559 sec. 	Task time: 10.08606 sec. 
checking if app esists yet...  OK	Total time: 1051.622 sec. 	Task time: 9.062988 sec. 
finding images with relative url...  OK	Total time: 1052.385 sec. 	Task time: 0.7630615 sec. 
Fetching description's product...  OK	Total time: 1055.177 sec. 	Task time: 2.7919922 sec. 
Fetching versions's product... OK	Total time: 1056.1299 sec. 	Task time: 0.95288086 sec. 
Fetching versions's product... OK	Total time: 1087.345 sec. 	Task time: 31.215088 sec. 
Fetching versions's product... OK	Total time: 1087.351 sec. 	Task time: 0.0059814453 sec. 
Opening new tab browser to visit the next url...  OK	Total time: 1094.19 sec. 	Task time: 6.8389893 sec. 
App time: 61.71704 sec. 
Opening webpage:  OK	Total time: 1108.312 sec. 	Task time: 14.12207 sec. 
checking if app esists yet...  OK	Total time: 1119.3619 sec. 	Task time: 11.049927 sec. 
finding images with relative url...  OK	Total time: 1120.476 sec. 	Task time: 1.1140137 sec. 
Fetching description's product...  OK	Total time: 1125.27 sec. 	Task time: 4.7940674 sec. 
Fetching versions's product... OK	Total time: 1126.1029 sec. 	Task time: 0.83288574 sec. 
Fetching versions's product... OK	Total time: 1149.1859 sec. 	Task time: 23.083008 sec. 
Fetching versions's product... OK	Total time: 1149.189 sec. 	Task time: 0.0030517578 sec. 
Opening new tab browser to visit the next url...  OK	Total time: 1155.8579 sec. 	Task time: 6.6689453 sec. 
App time: 61.66797 sec. 
Opening webpage:  OK	Total time: 1166.511 sec. 	Task time: 10.653076 sec. 
checking if app esists yet...  OK	Total time: 1176.574 sec. 	Task time: 10.062988 sec. 
finding images with relative url...  OK	Total time: 1176.9509 sec. 	Task time: 0.37695312 sec. 
Fetching description's product...  OK	Total time: 1181.715 sec. 	Task time: 4.764038 sec. 
Fetching versions's product... OK	Total time: 1185.9009 sec. 	Task time: 4.185913 sec. 
Fetching versions's product... OK	Total time: 1186.125 sec. 	Task time: 0.2241211 sec. 
Fetching versions's product... OK	Total time: 1186.1279 sec. 	Task time: 0.0029296875 sec. 
Opening new tab browser to visit the next url...  OK	Total time: 1192.846 sec. 	Task time: 6.7180176 sec. 
App time: 36.988037 sec. 
Opening webpage:  OK	Total time: 1207.917 sec. 	Task time: 15.071045 sec. 
checking if app esists yet...  OK	Total time: 1217.9319 sec. 	Task time: 10.014893 sec. 
finding images with relative url...  OK	Total time: 1219.7219 sec. 	Task time: 1.7900391 sec. 
Fetching description's product...  OK	Total time: 1221.538 sec. 	Task time: 1.81604 sec. 
Fetching versions's product... OK	Total time: 1222.69 sec. 	Task time: 1.1519775 sec. 
Fetching versions's product... OK	Total time: 1252.0919 sec. 	Task time: 29.401978 sec. 
Fetching versions's product... OK	Total time: 1252.095 sec. 	Task time: 0.0030517578 sec. 
Opening new tab browser to visit the next url...  OK	Total time: 1258.763 sec. 	Task time: 6.6679688 sec. 
App time: 65.91699 sec. 
Opening webpage:  OK	Total time: 1292.292 sec. 	Task time: 33.529053 sec. 
checking if app esists yet...  OK	Total time: 1322.4089 sec. 	Task time: 30.116943 sec. 
finding images with relative url...  OK	Total time: 1323.53 sec. 	Task time: 1.1210938 sec. 
Fetching description's product...  OK	Total time: 1325.3579 sec. 	Task time: 1.8278809 sec. 
Fetching versions's product... OK	Total time: 1326.375 sec. 	Task time: 1.0170898 sec. 
Fetching versions's product... OK	Total time: 1355.252 sec. 	Task time: 28.876953 sec. 
Fetching versions's product... OK	Total time: 1355.259 sec. 	Task time: 0.007080078 sec. 
Opening new tab browser to visit the next url...  OK	Total time: 1361.843 sec. 	Task time: 6.5839844 sec. 
App time: 103.08008 sec. 
Opening webpage:  OK	Total time: 1372.039 sec. 	Task time: 10.195923 sec. 
checking if app esists yet...  OK	Total time: 1383.638 sec. 	Task time: 11.598999 sec. 
finding images with relative url...  OK	Total time: 1384.7999 sec. 	Task time: 1.1619873 sec. 
Fetching description's product...  OK	Total time: 1386.3809 sec. 	Task time: 1.5809326 sec. 
Fetching versions's product... OK	Total time: 1386.871 sec. 	Task time: 0.4901123 sec. 
Fetching versions's product... OK	Total time: 1414.6019 sec. 	Task time: 27.730957 sec. 
Fetching versions's product... OK	Total time: 1414.606 sec. 	Task time: 0.0040283203 sec. 
Opening new tab browser to visit the next url...  OK	Total time: 1421.25 sec. 	Task time: 6.644043 sec. 
App time: 59.406982 sec. 
Opening webpage:  OK	Total time: 1431.079 sec. 	Task time: 9.8289795 sec. 
checking if app esists yet...  OK	Total time: 1439.677 sec. 	Task time: 8.598022 sec. 
finding images with relative url...  OK	Total time: 1440.0979 sec. 	Task time: 0.42089844 sec. 
Fetching description's product...  OK	Total time: 1444.7139 sec. 	Task time: 4.615967 sec. 
Fetching versions's product... OK	Total time: 1445.4349 sec. 	Task time: 0.72106934 sec. 
Fetching versions's product... OK	Total time: 1467.0889 sec. 	Task time: 21.65393 sec. 
Fetching versions's product... OK	Total time: 1467.091 sec. 	Task time: 0.0020751953 sec. 
Opening new tab browser to visit the next url...  OK	Total time: 1473.9299 sec. 	Task time: 6.8389893 sec. 
App time: 52.67993 sec. 
Opening webpage:  OK	Total time: 1484.7219 sec. 	Task time: 10.791992 sec. 
checking if app esists yet...  OK	Total time: 1495.579 sec. 	Task time: 10.857056 sec. 
finding images with relative url...  OK	Total time: 1496.414 sec. 	Task time: 0.83496094 sec. 
Fetching description's product...  OK	Total time: 1501.2479 sec. 	Task time: 4.8339844 sec. 
Fetching versions's product... OK	Total time: 1501.887 sec. 	Task time: 0.6390381 sec. 
Fetching versions's product... OK	Total time: 1524.031 sec. 	Task time: 22.144043 sec. 
Fetching versions's product... OK	Total time: 1524.033 sec. 	Task time: 0.001953125 sec. 
Opening new tab browser to visit the next url...  OK	Total time: 1530.679 sec. 	Task time: 6.645996 sec. 
App time: 56.749023 sec. 
Opening webpage:  OK	Total time: 1542.9609 sec. 	Task time: 12.281982 sec. 
checking if app esists yet...  OK	Total time: 1553.197 sec. 	Task time: 10.236084 sec. 
finding images with relative url...  OK	Total time: 1553.815 sec. 	Task time: 0.6179199 sec. 
Fetching description's product...  OK	Total time: 1555.0679 sec. 	Task time: 1.2529297 sec. 
Fetching versions's product... OK	Total time: 1555.965 sec. 	Task time: 0.8970947 sec. 
Fetching versions's product... OK	Total time: 1578.882 sec. 	Task time: 22.916992 sec. 
Fetching versions's product... OK	Total time: 1578.885 sec. 	Task time: 0.0030517578 sec. 
Opening new tab browser to visit the next url...  OK	Total time: 1585.575 sec. 	Task time: 6.6899414 sec. 
App time: 54.895996 sec. 
Opening webpage:  OK	Total time: 1597.3369 sec. 	Task time: 11.761963 sec. 
checking if app esists yet...  OK	Total time: 1607.679 sec. 	Task time: 10.342041 sec. 
finding images with relative url...  OK	Total time: 1608.6849 sec. 	Task time: 1.0059814 sec. 
Fetching description's product...  OK	Total time: 1609.8069 sec. 	Task time: 1.1219482 sec. 
Fetching versions's product... OK	Total time: 1610.439 sec. 	Task time: 0.6320801 sec. 
Fetching versions's product... OK	Total time: 1641.376 sec. 	Task time: 30.937012 sec. 
Fetching versions's product... OK	Total time: 1641.3789 sec. 	Task time: 0.0029296875 sec. 
Opening new tab browser to visit the next url...  OK	Total time: 1648.0059 sec. 	Task time: 6.626953 sec. 
App time: 62.43091 sec. 
Opening webpage:  OK	Total time: 1659.6199 sec. 	Task time: 11.614014 sec. 
checking if app esists yet...  OK	Total time: 1670.719 sec. 	Task time: 11.099121 sec. 
finding images with relative url...  OK	Total time: 1671.386 sec. 	Task time: 0.6669922 sec. 
Fetching description's product...  OK	Total time: 1672.913 sec. 	Task time: 1.5269775 sec. 
Fetching versions's product... OK	Total time: 1674.032 sec. 	Task time: 1.1190186 sec. 
Fetching versions's product... OK	Total time: 1703.0359 sec. 	Task time: 29.003906 sec. 
Fetching versions's product... OK	Total time: 1703.038 sec. 	Task time: 0.0020751953 sec. 
Opening new tab browser to visit the next url...  OK	Total time: 1710.7789 sec. 	Task time: 7.740967 sec. 
App time: 62.77307 sec. 
Opening webpage:  OK	Total time: 1728.6819 sec. 	Task time: 17.902954 sec. 
checking if app esists yet...  OK	Total time: 1738.694 sec. 	Task time: 10.012085 sec. 
finding images with relative url...  OK	Total time: 1741.272 sec. 	Task time: 2.578003 sec. 
Fetching description's product...  OK	Total time: 1744.1079 sec. 	Task time: 2.8359375 sec. 
Fetching versions's product... OK	Total time: 1745.476 sec. 	Task time: 1.368042 sec. 
Fetching versions's product... OK	Total time: 1778.551 sec. 	Task time: 33.075073 sec. 
Fetching versions's product... OK	Total time: 1778.5549 sec. 	Task time: 0.00390625 sec. 
Opening new tab browser to visit the next url...  OK	Total time: 1786.1649 sec. 	Task time: 7.6099854 sec. 
App time: 75.38599 sec. 
Opening webpage:  OK	Total time: 1803.6609 sec. 	Task time: 17.495972 sec. 
checking if app esists yet...  OK	Total time: 1816.568 sec. 	Task time: 12.9071045 sec. 
finding images with relative url...  OK	Total time: 1818.116 sec. 	Task time: 1.5479736 sec. 
Fetching description's product...  OK	Total time: 1823.314 sec. 	Task time: 5.197998 sec. 
Fetching versions's product... OK	Total time: 1827.6599 sec. 	Task time: 4.3459473 sec. 
Fetching versions's product... OK	Total time: 1829.538 sec. 	Task time: 1.8780518 sec. 
Fetching versions's product... OK	Total time: 1829.5399 sec. 	Task time: 0.001953125 sec. 
Opening new tab browser to visit the next url...  OK	Total time: 1837.636 sec. 	Task time: 8.096069 sec. 
App time: 51.47107 sec. 
Opening webpage:  OK	Total time: 1858.1909 sec. 	Task time: 20.554932 sec. 
checking if app esists yet...  OK	Total time: 1871.131 sec. 	Task time: 12.940063 sec. 
finding images with relative url...  OK	Total time: 1873.1129 sec. 	Task time: 1.9819336 sec. 
Fetching description's product...  OK	Total time: 1875.308 sec. 	Task time: 2.1950684 sec. 
Fetching versions's product... OK	Total time: 1877.246 sec. 	Task time: 1.9379883 sec. 
Fetching versions's product... OK	Total time: 1906.266 sec. 	Task time: 29.02002 sec. 
Fetching versions's product... OK	Total time: 1906.278 sec. 	Task time: 0.011962891 sec. 
Opening new tab browser to visit the next url...  OK	Total time: 1914.2 sec. 	Task time: 7.921997 sec. 
App time: 76.563965 sec. 
Opening webpage:  OK	Total time: 1930.053 sec. 	Task time: 15.853027 sec. 
checking if app esists yet...  OK	Total time: 1942.0339 sec. 	Task time: 11.980957 sec. 
finding images with relative url...  OK	Total time: 1944.179 sec. 	Task time: 2.1450195 sec. 
Fetching description's product...  OK	Total time: 1950.5359 sec. 	Task time: 6.3569336 sec. 
Fetching versions's product... OK	Total time: 1955.018 sec. 	Task time: 4.4820557 sec. 
Fetching versions's product... OK	Total time: 1957.694 sec. 	Task time: 2.6760254 sec. 
Fetching versions's product... OK	Total time: 1957.6969 sec. 	Task time: 0.0029296875 sec. 
Opening new tab browser to visit the next url...  OK	Total time: 1966.622 sec. 	Task time: 8.925049 sec. 
App time: 52.421997 sec. 
Opening webpage:  OK	Total time: 1986.5969 sec. 	Task time: 19.974976 sec. 
checking if app esists yet...  OK	Total time: 1997.0919 sec. 	Task time: 10.494995 sec. 
finding images with relative url...  OK	Total time: 1999.965 sec. 	Task time: 2.8730469 sec. 
Downloading webpage on data.html...  OK	Total time: 2000.746 sec. 	Task time: 0.78100586 sec. 
Fetching description's product...  OK	Total time: 2006.1389 sec. 	Task time: 5.3929443 sec. 
Fetching versions's product... OK	Total time: 2007.8479 sec. 	Task time: 1.7089844 sec. 
Fetching versions's product... OK	Total time: 2036.122 sec. 	Task time: 28.274048 sec. 
Fetching versions's product... OK	Total time: 2036.126 sec. 	Task time: 0.0040283203 sec. 
Opening new tab browser to visit the next url...  OK	Total time: 2043.9779 sec. 	Task time: 7.8519287 sec. 
App time: 77.35596 sec. 
Opening webpage:  OK	Total time: 2058.523 sec. 	Task time: 14.545044 sec. 
checking if app esists yet...  OK	Total time: 2069.2788 sec. 	Task time: 10.755859 sec. 
finding images with relative url...  OK	Total time: 2072.3179 sec. 	Task time: 3.0390625 sec. 
Downloading webpage on data.html...  OK	Total time: 2073.355 sec. 	Task time: 1.0371094 sec. 
Fetching description's product...  OK	Total time: 2078.276 sec. 	Task time: 4.9208984 sec. 
Fetching versions's product... OK	Total time: 2080.325 sec. 	Task time: 2.0490723 sec. 
Fetching versions's product... OK	Total time: 2105.372 sec. 	Task time: 25.04712 sec. 
Fetching versions's product... OK	Total time: 2105.375 sec. 	Task time: 0.0029296875 sec. 
Opening new tab browser to visit the next url...  OK	Total time: 2112.87 sec. 	Task time: 7.495117 sec. 
App time: 68.89221 sec. 
Opening webpage:  OK	Total time: 2131.8828 sec. 	Task time: 19.012695 sec. 
checking if app esists yet...  OK	Total time: 2196.579 sec. 	Task time: 64.69629 sec. 
finding images with relative url...  OK	Total time: 2197.04 sec. 	Task time: 0.4609375 sec. 
Downloading webpage on data.html...  OK	Total time: 2197.346 sec. 	Task time: 0.3059082 sec. 
Fetching description's product...  OK	Total time: 2201.913 sec. 	Task time: 4.5671387 sec. 
Fetching versions's product... OK	Total time: 2206.075 sec. 	Task time: 4.161865 sec. 
Fetching versions's product... OK	Total time: 2206.325 sec. 	Task time: 0.25 sec. 
Fetching versions's product... OK	Total time: 2206.331 sec. 	Task time: 0.0061035156 sec. 
Opening new tab browser to visit the next url...  OK	Total time: 2213.16 sec. 	Task time: 6.8288574 sec. 
App time: 100.289795 sec. 
Opening webpage:  OK	Total time: 2232.658 sec. 	Task time: 19.498047 sec. 
checking if app esists yet...  OK	Total time: 2245.891 sec. 	Task time: 13.233154 sec. 
finding images with relative url...  OK	Total time: 2246.575 sec. 	Task time: 0.6838379 sec. 
Downloading webpage on data.html...  OK	Total time: 2246.885 sec. 	Task time: 0.3100586 sec. 
Fetching description's product...  OK	Total time: 2251.563 sec. 	Task time: 4.6779785 sec. 
Fetching versions's product... OK	Total time: 2252.246 sec. 	Task time: 0.68310547 sec. 
Fetching versions's product... OK	Total time: 2280.346 sec. 	Task time: 28.099854 sec. 
Fetching versions's product... OK	Total time: 2280.348 sec. 	Task time: 0.001953125 sec. 
Opening new tab browser to visit the next url...  OK	Total time: 2287.033 sec. 	Task time: 6.6850586 sec. 
App time: 73.87305 sec. 
Opening webpage:  OK	Total time: 2298.022 sec. 	Task time: 10.989014 sec. 
checking if app esists yet...  OK	Total time: 2310.083 sec. 	Task time: 12.061035 sec. 
finding images with relative url...  OK	Total time: 2310.845 sec. 	Task time: 0.7619629 sec. 
Downloading webpage on data.html...  OK	Total time: 2311.1318 sec. 	Task time: 0.28686523 sec. 
Fetching description's product...  OK	Total time: 2315.9458 sec. 	Task time: 4.813965 sec. 
Fetching versions's product... OK	Total time: 2320.121 sec. 	Task time: 4.175293 sec. 
Fetching versions's product... OK	Total time: 2321.8628 sec. 	Task time: 1.7416992 sec. 
Fetching versions's product... OK	Total time: 2321.865 sec. 	Task time: 0.0021972656 sec. 
Opening new tab browser to visit the next url...  OK	Total time: 2328.751 sec. 	Task time: 6.8859863 sec. 
App time: 41.718018 sec. 
Opening webpage:  OK	Total time: 2339.525 sec. 	Task time: 10.773926 sec. 
checking if app esists yet...  OK	Total time: 2349.9048 sec. 	Task time: 10.379883 sec. 
finding images with relative url...  OK	Total time: 2350.4028 sec. 	Task time: 0.49804688 sec. 
Downloading webpage on data.html...  OK	Total time: 2350.7178 sec. 	Task time: 0.3149414 sec. 
Fetching description's product...  OK	Total time: 2351.823 sec. 	Task time: 1.1052246 sec. 
Fetching versions's product... OK	Total time: 2352.5298 sec. 	Task time: 0.7067871 sec. 
Fetching versions's product... OK	Total time: 2375.795 sec. 	Task time: 23.265137 sec. 
Fetching versions's product... OK	Total time: 2375.7969 sec. 	Task time: 0.001953125 sec. 
Opening new tab browser to visit the next url...  OK	Total time: 2382.543 sec. 	Task time: 6.7460938 sec. 
App time: 53.791992 sec. 
Opening webpage:  OK	Total time: 2393.952 sec. 	Task time: 11.408936 sec. 
checking if app esists yet...  OK	Total time: 2404.7769 sec. 	Task time: 10.824951 sec. 
finding images with relative url...  OK	Total time: 2405.5718 sec. 	Task time: 0.7949219 sec. 
Downloading webpage on data.html...  OK	Total time: 2405.9668 sec. 	Task time: 0.39501953 sec. 
Fetching description's product...  OK	Total time: 2410.753 sec. 	Task time: 4.786133 sec. 
Fetching versions's product... OK	Total time: 2414.992 sec. 	Task time: 4.2390137 sec. 
Fetching versions's product... OK	Total time: 2415.349 sec. 	Task time: 0.35717773 sec. 
Fetching versions's product... OK	Total time: 2415.352 sec. 	Task time: 0.0029296875 sec. 
Opening new tab browser to visit the next url...  OK	Total time: 2422.125 sec. 	Task time: 6.772949 sec. 
App time: 39.58203 sec. 
Opening webpage:  OK	Total time: 2432.941 sec. 	Task time: 10.815918 sec. 
checking if app esists yet...  OK	Total time: 2441.874 sec. 	Task time: 8.933105 sec. 
finding images with relative url...  OK	Total time: 2442.5781 sec. 	Task time: 0.70410156 sec. 
Downloading webpage on data.html...  OK	Total time: 2442.885 sec. 	Task time: 0.30688477 sec. 
Fetching description's product...  OK	Total time: 2447.588 sec. 	Task time: 4.702881 sec. 
Fetching versions's product... OK	Total time: 2451.865 sec. 	Task time: 4.2770996 sec. 
Fetching versions's product... OK	Total time: 2452.584 sec. 	Task time: 0.71899414 sec. 
Fetching versions's product... OK	Total time: 2452.584 sec. 	Task time: 0.0 sec. 
Opening new tab browser to visit the next url...  OK	Total time: 2459.407 sec. 	Task time: 6.822998 sec. 
App time: 37.281982 sec. 
Opening webpage:  OK	Total time: 2469.648 sec. 	Task time: 10.240967 sec. 
checking if app esists yet...  OK	Total time: 2481.93 sec. 	Task time: 12.281982 sec. 
finding images with relative url...  OK	Total time: 2482.5928 sec. 	Task time: 0.6628418 sec. 
Downloading webpage on data.html...  OK	Total time: 2483.232 sec. 	Task time: 0.63916016 sec. 
Fetching description's product...  OK	Total time: 2487.725 sec. 	Task time: 4.493164 sec. 
Fetching versions's product... OK	Total time: 2488.732 sec. 	Task time: 1.0068359 sec. 
Import Input urls from csv files...  OK	Total time: 2489.345 sec. 	Task time: 2489.345 sec. 
Opening webpage:  OK	Total time: 2501.5798 sec. 	Task time: 12.234863 sec. 
Logging... 	Total time: 2516.744 sec. 	Task time: 15.1640625 sec. 
checking if app esists yet...  OK	Total time: 2523.8398 sec. 	Task time: 7.0959473 sec. 
finding images with relative url...  OK	Total time: 2526.5 sec. 	Task time: 2.6601562 sec. 
Fetching description's product...  OK	Total time: 2531.265 sec. 	Task time: 4.7648926 sec. 
Fetching versions's product... OK	Total time: 2532.0378 sec. 	Task time: 0.7729492 sec. 
Fetching versions's product... OK	Total time: 2555.8708 sec. 	Task time: 23.833008 sec. 
Fetching versions's product... OK	Total time: 2555.873 sec. 	Task time: 0.0021972656 sec. 
Opening new tab browser to visit the next url...  OK	Total time: 2562.958 sec. 	Task time: 7.084961 sec. 
App time: 2562.958 sec. 
Opening webpage:  OK	Total time: 2573.5698 sec. 	Task time: 10.611816 sec. 
checking if app esists yet...  OK	Total time: 2585.087 sec. 	Task time: 11.51709 sec. 
finding images with relative url...  OK	Total time: 2586.3298 sec. 	Task time: 1.2429199 sec. 
Downloading webpage on data.html...  OK	Total time: 2586.6719 sec. 	Task time: 0.34204102 sec. 
Fetching description's product...  OK	Total time: 2591.3928 sec. 	Task time: 4.7209473 sec. 
Fetching versions's product... OK	Total time: 2595.598 sec. 	Task time: 4.205078 sec. 
Fetching versions's product... OK	Total time: 2597.078 sec. 	Task time: 1.4799805 sec. 
Fetching versions's product... OK	Total time: 2597.0798 sec. 	Task time: 0.001953125 sec. 
Opening new tab browser to visit the next url...  OK	Total time: 2603.919 sec. 	Task time: 6.8391113 sec. 
App time: 40.960938 sec. 
Opening webpage:  OK	Total time: 2614.566 sec. 	Task time: 10.646973 sec. 
checking if app esists yet...  OK	Total time: 2623.5789 sec. 	Task time: 9.012939 sec. 
finding images with relative url...  OK	Total time: 2624.536 sec. 	Task time: 0.95703125 sec. 
Downloading webpage on data.html...  OK	Total time: 2624.991 sec. 	Task time: 0.45507812 sec. 
Fetching description's product...  OK	Total time: 2626.634 sec. 	Task time: 1.6430664 sec. 
Fetching versions's product... OK	Total time: 2627.272 sec. 	Task time: 0.63793945 sec. 
Fetching versions's product... OK	Total time: 2656.573 sec. 	Task time: 29.301025 sec. 
Fetching versions's product... OK	Total time: 2656.578 sec. 	Task time: 0.0048828125 sec. 
Opening new tab browser to visit the next url...  OK	Total time: 2663.3499 sec. 	Task time: 6.7719727 sec. 
App time: 59.43091 sec. 
Opening webpage:  OK	Total time: 2674.04 sec. 	Task time: 10.690186 sec. 
checking if app esists yet...  OK	Total time: 2684.228 sec. 	Task time: 10.187988 sec. 
finding images with relative url...  OK	Total time: 2685.001 sec. 	Task time: 0.7729492 sec. 
Downloading webpage on data.html...  OK	Total time: 2685.498 sec. 	Task time: 0.4970703 sec. 
Fetching description's product...  OK	Total time: 2690.1199 sec. 	Task time: 4.621826 sec. 
Fetching versions's product... OK	Total time: 2694.3508 sec. 	Task time: 4.230957 sec. 
Fetching versions's product... OK	Total time: 2694.857 sec. 	Task time: 0.5061035 sec. 
Fetching versions's product... OK	Total time: 2694.859 sec. 	Task time: 0.001953125 sec. 
Opening new tab browser to visit the next url...  OK	Total time: 2701.848 sec. 	Task time: 6.9890137 sec. 
App time: 38.498047 sec. 
Opening webpage:  OK	Total time: 2713.545 sec. 	Task time: 11.6970215 sec. 
checking if app esists yet...  OK	Total time: 2741.522 sec. 	Task time: 27.97705 sec. 
finding images with relative url...  OK	Total time: 2742.296 sec. 	Task time: 0.7739258 sec. 
Downloading webpage on data.html...  OK	Total time: 2742.789 sec. 	Task time: 0.49316406 sec. 
Fetching description's product...  OK	Total time: 2744.053 sec. 	Task time: 1.263916 sec. 
Fetching versions's product... OK	Total time: 2744.603 sec. 	Task time: 0.5500488 sec. 
Fetching versions's product... OK	Total time: 2767.795 sec. 	Task time: 23.191895 sec. 
Fetching versions's product... OK	Total time: 2767.802 sec. 	Task time: 0.007080078 sec. 
Opening new tab browser to visit the next url...  OK	Total time: 2774.5798 sec. 	Task time: 6.777832 sec. 
App time: 72.73193 sec. 
Opening webpage:  OK	Total time: 2786.998 sec. 	Task time: 12.418213 sec. 
checking if app esists yet...  OK	Total time: 2797.5068 sec. 	Task time: 10.508789 sec. 
finding images with relative url...  OK	Total time: 2798.557 sec. 	Task time: 1.0500488 sec. 
Downloading webpage on data.html...  OK	Total time: 2798.868 sec. 	Task time: 0.31103516 sec. 
Fetching description's product...  OK	Total time: 2800.469 sec. 	Task time: 1.6010742 sec. 
Fetching versions's product... OK	Total time: 2801.0369 sec. 	Task time: 0.5678711 sec. 
Fetching versions's product... OK	Total time: 2827.062 sec. 	Task time: 26.025146 sec. 
Fetching versions's product... OK	Total time: 2827.0688 sec. 	Task time: 0.0068359375 sec. 
Opening new tab browser to visit the next url...  OK	Total time: 2833.759 sec. 	Task time: 6.6901855 sec. 
App time: 59.1792 sec. 
Opening webpage:  OK	Total time: 2845.0278 sec. 	Task time: 11.268799 sec. 
checking if app esists yet...  OK	Total time: 2855.28 sec. 	Task time: 10.252197 sec. 
finding images with relative url...  OK	Total time: 2856.192 sec. 	Task time: 0.91186523 sec. 
Downloading webpage on data.html...  OK	Total time: 2856.586 sec. 	Task time: 0.39404297 sec. 
Fetching description's product...  OK	Total time: 2858.145 sec. 	Task time: 1.559082 sec. 
Fetching versions's product... OK	Total time: 2858.6738 sec. 	Task time: 0.5288086 sec. 
Fetching versions's product... OK	Total time: 2883.307 sec. 	Task time: 24.633057 sec. 
Fetching versions's product... OK	Total time: 2883.31 sec. 	Task time: 0.0031738281 sec. 
Opening new tab browser to visit the next url...  OK	Total time: 2890.021 sec. 	Task time: 6.7109375 sec. 
App time: 56.261963 sec. 
Opening webpage:  OK	Total time: 2899.877 sec. 	Task time: 9.855957 sec. 
checking if app esists yet...  OK	Total time: 2911.0378 sec. 	Task time: 11.160889 sec. 
finding images with relative url...  OK	Total time: 2911.667 sec. 	Task time: 0.6291504 sec. 
Downloading webpage on data.html...  OK	Total time: 2911.998 sec. 	Task time: 0.3310547 sec. 
Fetching description's product...  OK	Total time: 2916.5889 sec. 	Task time: 4.5908203 sec. 
Fetching versions's product... OK	Total time: 2920.803 sec. 	Task time: 4.2141113 sec. 
Fetching versions's product... OK	Total time: 2921.5 sec. 	Task time: 0.6970215 sec. 
Fetching versions's product... OK	Total time: 2921.503 sec. 	Task time: 0.0029296875 sec. 
Opening new tab browser to visit the next url...  OK	Total time: 2928.468 sec. 	Task time: 6.965088 sec. 
App time: 38.44702 sec. 
Opening webpage:  OK	Total time: 2938.0989 sec. 	Task time: 9.630859 sec. 
checking if app esists yet...  OK	Total time: 2948.806 sec. 	Task time: 10.707031 sec. 
finding images with relative url...  OK	Total time: 2949.596 sec. 	Task time: 0.79003906 sec. 
Downloading webpage on data.html...  OK	Total time: 2950.011 sec. 	Task time: 0.41503906 sec. 
Fetching description's product...  OK	Total time: 2954.669 sec. 	Task time: 4.657959 sec. 
Fetching versions's product... OK	Total time: 2955.449 sec. 	Task time: 0.7800293 sec. 
Fetching versions's product... OK	Total time: 2978.2869 sec. 	Task time: 22.83789 sec. 
Fetching versions's product... OK	Total time: 2978.291 sec. 	Task time: 0.0041503906 sec. 
Opening new tab browser to visit the next url...  OK	Total time: 2985.211 sec. 	Task time: 6.919922 sec. 
App time: 56.74292 sec. 
Opening webpage:  OK	Total time: 2996.541 sec. 	Task time: 11.330078 sec. 
checking if app esists yet...  OK	Total time: 3006.212 sec. 	Task time: 9.670898 sec. 
finding images with relative url...  OK	Total time: 3006.711 sec. 	Task time: 0.49902344 sec. 
Downloading webpage on data.html...  OK	Total time: 3007.031 sec. 	Task time: 0.32006836 sec. 
Fetching description's product...  OK	Total time: 3008.192 sec. 	Task time: 1.1608887 sec. 
Fetching versions's product... OK	Total time: 3009.062 sec. 	Task time: 0.8701172 sec. 
Fetching versions's product... OK	Total time: 3040.1748 sec. 	Task time: 31.112793 sec. 
Fetching versions's product... OK	Total time: 3040.182 sec. 	Task time: 0.007080078 sec. 
Opening new tab browser to visit the next url...  OK	Total time: 3047.021 sec. 	Task time: 6.8391113 sec. 
App time: 61.81006 sec. 
Opening webpage:  OK	Total time: 3058.1729 sec. 	Task time: 11.151855 sec. 
checking if app esists yet...  OK	Total time: 3067.33 sec. 	Task time: 9.157227 sec. 
finding images with relative url...  OK	Total time: 3068.23 sec. 	Task time: 0.89990234 sec. 
Downloading webpage on data.html...  OK	Total time: 3068.557 sec. 	Task time: 0.3269043 sec. 
Fetching description's product...  OK	Total time: 3069.992 sec. 	Task time: 1.4350586 sec. 
Fetching versions's product... OK	Total time: 3070.659 sec. 	Task time: 0.6669922 sec. 
Fetching versions's product... OK	Total time: 3093.45 sec. 	Task time: 22.791016 sec. 
Fetching versions's product... OK	Total time: 3093.453 sec. 	Task time: 0.0029296875 sec. 
Opening new tab browser to visit the next url...  OK	Total time: 3100.1619 sec. 	Task time: 6.7089844 sec. 
App time: 53.14087 sec. 
Opening webpage:  OK	Total time: 3110.5789 sec. 	Task time: 10.416992 sec. 
checking if app esists yet...  OK	Total time: 3119.437 sec. 	Task time: 8.858154 sec. 
finding images with relative url...  OK	Total time: 3120.268 sec. 	Task time: 0.8310547 sec. 
Downloading webpage on data.html...  OK	Total time: 3120.565 sec. 	Task time: 0.296875 sec. 
Fetching description's product...  OK	Total time: 3125.114 sec. 	Task time: 4.5490723 sec. 
Fetching versions's product... OK	Total time: 3129.289 sec. 	Task time: 4.175049 sec. 
Fetching versions's product... OK	Total time: 3130.525 sec. 	Task time: 1.2358398 sec. 
Fetching versions's product... OK	Total time: 3130.525 sec. 	Task time: 0.0 sec. 
Opening new tab browser to visit the next url...  OK	Total time: 3137.345 sec. 	Task time: 6.8200684 sec. 
App time: 37.183105 sec. 
Opening webpage:  OK	Total time: 3148.4119 sec. 	Task time: 11.066895 sec. 
checking if app esists yet...  OK	Total time: 3161.776 sec. 	Task time: 13.364014 sec. 
finding images with relative url...  OK	Total time: 3164.418 sec. 	Task time: 2.6420898 sec. 
Downloading webpage on data.html...  OK	Total time: 3165.4458 sec. 	Task time: 1.027832 sec. 
Fetching description's product...  OK	Total time: 3169.303 sec. 	Task time: 3.8571777 sec. 
Fetching versions's product... OK	Total time: 3170.378 sec. 	Task time: 1.0749512 sec. 
Fetching versions's product... OK	Total time: 3195.145 sec. 	Task time: 24.76709 sec. 
Fetching versions's product... OK	Total time: 3195.149 sec. 	Task time: 0.00390625 sec. 
Opening new tab browser to visit the next url...  OK	Total time: 3202.3618 sec. 	Task time: 7.2128906 sec. 
App time: 65.016846 sec. 
Opening webpage:  OK	Total time: 3213.691 sec. 	Task time: 11.329102 sec. 
checking if app esists yet...  OK	Total time: 3222.503 sec. 	Task time: 8.812012 sec. 
finding images with relative url...  OK	Total time: 3223.481 sec. 	Task time: 0.97802734 sec. 
Downloading webpage on data.html...  OK	Total time: 3223.803 sec. 	Task time: 0.32202148 sec. 
Fetching description's product...  OK	Total time: 3224.9749 sec. 	Task time: 1.171875 sec. 
Fetching versions's product... OK	Total time: 3225.656 sec. 	Task time: 0.68115234 sec. 
Fetching versions's product... OK	Total time: 3250.637 sec. 	Task time: 24.980957 sec. 
Fetching versions's product... OK	Total time: 3250.64 sec. 	Task time: 0.0029296875 sec. 
Opening new tab browser to visit the next url...  OK	Total time: 3257.421 sec. 	Task time: 6.781006 sec. 
App time: 55.059082 sec. 
Opening webpage:  OK	Total time: 3268.4949 sec. 	Task time: 11.073975 sec. 
checking if app esists yet...  OK	Total time: 3277.866 sec. 	Task time: 9.371094 sec. 
finding images with relative url...  OK	Total time: 3278.748 sec. 	Task time: 0.8820801 sec. 
Downloading webpage on data.html...  OK	Total time: 3279.168 sec. 	Task time: 0.41992188 sec. 
Fetching description's product...  OK	Total time: 3280.7559 sec. 	Task time: 1.5878906 sec. 
Fetching versions's product... OK	Total time: 3282.022 sec. 	Task time: 1.2661133 sec. 
